%YAML 1.1
%TAG !u! tag:unity3d.com,2011:
--- !u!74 &7400000
AnimationClip:
  m_ObjectHideFlags: 0
  m_CorrespondingSourceObject: {fileID: 0}
  m_PrefabInstance: {fileID: 0}
  m_PrefabAsset: {fileID: 0}
  m_Name: Correr_Enemigo
  serializedVersion: 6
  m_Legacy: 0
  m_Compressed: 0
  m_UseHighQualityCurve: 1
  m_RotationCurves: []
  m_CompressedRotationCurves: []
  m_EulerCurves: []
  m_PositionCurves: []
  m_ScaleCurves: []
  m_FloatCurves: []
  m_PPtrCurves:
  - curve:
    - time: 0
      value: {fileID: 21300000, guid: 1ae48d41ca81929468407e4d9ce96974, type: 3}
    - time: 0.11666667
      value: {fileID: 21300000, guid: 2d09e261dbc227b42a270a683d840b2f, type: 3}
    - time: 0.23333333
      value: {fileID: 21300000, guid: 7dda77beec24fab4ea43ad3e502bfe88, type: 3}
    - time: 0.35
      value: {fileID: 21300000, guid: 7c320d6ea923b9846aaea3223470e47a, type: 3}
    - time: 0.46666667
      value: {fileID: 21300000, guid: e5b90cd523bd43c4c9214c40cd326194, type: 3}
    - time: 0.5833333
      value: {fileID: 21300000, guid: 5cbbcbe687cbe814e821c3ff67144b2e, type: 3}
    - time: 0.7
      value: {fileID: 21300000, guid: d84684739acd980419ce11e07720e4c9, type: 3}
    - time: 0.81666666
      value: {fileID: 21300000, guid: 045c24c8d6238cc43905a84feb0fbd9a, type: 3}
    attribute: m_Sprite
    path: 
    classID: 212
    script: {fileID: 0}
  m_SampleRate: 60
  m_WrapMode: 0
  m_Bounds:
    m_Center: {x: 0, y: 0, z: 0}
    m_Extent: {x: 0, y: 0, z: 0}
  m_ClipBindingConstant:
    genericBindings:
    - serializedVersion: 2
      path: 0
      attribute: 0
      script: {fileID: 0}
      typeID: 212
      customType: 23
      isPPtrCurve: 1
    pptrCurveMapping:
    - {fileID: 21300000, guid: 1ae48d41ca81929468407e4d9ce96974, type: 3}
    - {fileID: 21300000, guid: 2d09e261dbc227b42a270a683d840b2f, type: 3}
    - {fileID: 21300000, guid: 7dda77beec24fab4ea43ad3e502bfe88, type: 3}
    - {fileID: 21300000, guid: 7c320d6ea923b9846aaea3223470e47a, type: 3}
    - {fileID: 21300000, guid: e5b90cd523bd43c4c9214c40cd326194, type: 3}
    - {fileID: 21300000, guid: 5cbbcbe687cbe814e821c3ff67144b2e, type: 3}
    - {fileID: 21300000, guid: d84684739acd980419ce11e07720e4c9, type: 3}
    - {fileID: 21300000, guid: 045c24c8d6238cc43905a84feb0fbd9a, type: 3}
  m_AnimationClipSettings:
    serializedVersion: 2
    m_AdditiveReferencePoseClip: {fileID: 0}
    m_AdditiveReferencePoseTime: 0
    m_StartTime: 0
    m_StopTime: 0.8333333
    m_OrientationOffsetY: 0
    m_Level: 0
    m_CycleOffset: 0
    m_HasAdditiveReferencePose: 0
    m_LoopTime: 1
    m_LoopBlend: 0
    m_LoopBlendOrientation: 0
    m_LoopBlendPositionY: 0
    m_LoopBlendPositionXZ: 0
    m_KeepOriginalOrientation: 0
    m_KeepOriginalPositionY: 1
    m_KeepOriginalPositionXZ: 0
    m_HeightFromFeet: 0
    m_Mirror: 0
  m_EditorCurves: []
  m_EulerEditorCurves: []
  m_HasGenericRootTransform: 0
  m_HasMotionFloatCurves: 0
  m_Events: []
